\headcommand {\slideentry {0}{0}{1}{1/1}{}{0}}
\headcommand {\beamer@framepages {1}{1}}
\headcommand {\slideentry {0}{0}{2}{2/2}{}{0}}
\headcommand {\beamer@framepages {2}{2}}
\headcommand {\slideentry {0}{0}{3}{3/3}{}{0}}
\headcommand {\beamer@framepages {3}{3}}
\headcommand {\slideentry {0}{0}{4}{4/5}{}{0}}
\headcommand {\beamer@framepages {4}{5}}
\headcommand {\slideentry {0}{0}{5}{6/6}{}{0}}
\headcommand {\beamer@framepages {6}{6}}
\headcommand {\slideentry {0}{0}{6}{7/8}{}{0}}
\headcommand {\beamer@framepages {7}{8}}
\headcommand {\slideentry {0}{0}{7}{9/11}{}{0}}
\headcommand {\beamer@framepages {9}{11}}
\headcommand {\slideentry {0}{0}{8}{12/17}{}{0}}
\headcommand {\beamer@framepages {12}{17}}
\headcommand {\slideentry {0}{0}{9}{18/24}{}{0}}
\headcommand {\beamer@framepages {18}{24}}
\headcommand {\slideentry {0}{0}{10}{25/26}{}{0}}
\headcommand {\beamer@framepages {25}{26}}
\headcommand {\slideentry {0}{0}{11}{27/28}{}{0}}
\headcommand {\beamer@framepages {27}{28}}
\headcommand {\slideentry {0}{0}{12}{29/29}{}{0}}
\headcommand {\beamer@framepages {29}{29}}
\headcommand {\slideentry {0}{0}{13}{30/30}{}{0}}
\headcommand {\beamer@framepages {30}{30}}
\headcommand {\slideentry {0}{0}{14}{31/32}{}{0}}
\headcommand {\beamer@framepages {31}{32}}
\headcommand {\beamer@partpages {1}{32}}
\headcommand {\beamer@subsectionpages {1}{32}}
\headcommand {\beamer@sectionpages {1}{32}}
\headcommand {\beamer@documentpages {32}}
\headcommand {\gdef \inserttotalframenumber {13}}
\headcommand {\slideentry {0}{0}{15}{33/33}{}{0}}
\headcommand {\beamer@framepages {33}{33}}
