\relax 
\providecommand\hyper@newdestlabel[2]{}
\providecommand\HyField@AuxAddToFields[1]{}
\providecommand\HyField@AuxAddToCoFields[2]{}
\@writefile{nav}{\headcommand {\slideentry {0}{0}{1}{1/1}{}{0}}}
\@writefile{nav}{\headcommand {\beamer@framepages {1}{1}}}
\pgfsyspdfmark {pgfid1}{716969}{13765391}
\pgfsyspdfmark {pgfid2}{716969}{12874101}
\@writefile{nav}{\headcommand {\slideentry {0}{0}{2}{2/2}{}{0}}}
\@writefile{nav}{\headcommand {\beamer@framepages {2}{2}}}
\pgfsyspdfmark {pgfid3}{716969}{13765391}
\@writefile{nav}{\headcommand {\slideentry {0}{0}{3}{3/3}{}{0}}}
\@writefile{nav}{\headcommand {\beamer@framepages {3}{3}}}
\pgfsyspdfmark {pgfid4}{716969}{13765391}
\pgfsyspdfmark {pgfid5}{716969}{12874101}
\pgfsyspdfmark {pgfid6}{716969}{13765391}
\pgfsyspdfmark {pgfid7}{716969}{12874101}
\@writefile{nav}{\headcommand {\slideentry {0}{0}{4}{4/5}{}{0}}}
\@writefile{nav}{\headcommand {\beamer@framepages {4}{5}}}
\pgfsyspdfmark {pgfid8}{716969}{14034089}
\pgfsyspdfmark {pgfid9}{716969}{13411497}
\pgfsyspdfmark {pgfid10}{716969}{12788905}
\pgfsyspdfmark {pgfid11}{716969}{12166313}
\pgfsyspdfmark {pgfid12}{716969}{11543721}
\@writefile{nav}{\headcommand {\slideentry {0}{0}{5}{6/6}{}{0}}}
\@writefile{nav}{\headcommand {\beamer@framepages {6}{6}}}
\@writefile{nav}{\headcommand {\slideentry {0}{0}{6}{7/8}{}{0}}}
\@writefile{nav}{\headcommand {\beamer@framepages {7}{8}}}
\pgfsyspdfmark {pgfid13}{716969}{13765391}
\pgfsyspdfmark {pgfid14}{716969}{12874101}
\pgfsyspdfmark {pgfid15}{1315442}{12874101}
\pgfsyspdfmark {pgfid16}{716969}{13765391}
\pgfsyspdfmark {pgfid17}{716969}{12874101}
\pgfsyspdfmark {pgfid18}{1315442}{12874101}
\pgfsyspdfmark {pgfid19}{716969}{13765391}
\pgfsyspdfmark {pgfid20}{716969}{12874101}
\pgfsyspdfmark {pgfid21}{1315442}{12874101}
\@writefile{nav}{\headcommand {\slideentry {0}{0}{7}{9/11}{}{0}}}
\@writefile{nav}{\headcommand {\beamer@framepages {9}{11}}}
\pgfsyspdfmark {pgfid22}{716969}{13765391}
\pgfsyspdfmark {pgfid23}{1115951}{13765391}
\pgfsyspdfmark {pgfid24}{1714424}{13765391}
\pgfsyspdfmark {pgfid25}{2312897}{13765391}
\pgfsyspdfmark {pgfid26}{2911370}{13765391}
\pgfsyspdfmark {pgfid27}{716969}{13765391}
\pgfsyspdfmark {pgfid28}{1115951}{13765391}
\pgfsyspdfmark {pgfid29}{1714424}{13765391}
\pgfsyspdfmark {pgfid30}{2312897}{13765391}
\pgfsyspdfmark {pgfid31}{2911370}{13765391}
\pgfsyspdfmark {pgfid32}{716969}{13765391}
\pgfsyspdfmark {pgfid33}{1115951}{13765391}
\pgfsyspdfmark {pgfid34}{1714424}{13765391}
\pgfsyspdfmark {pgfid35}{2312897}{13765391}
\pgfsyspdfmark {pgfid36}{2911370}{13765391}
\pgfsyspdfmark {pgfid37}{716969}{13765391}
\pgfsyspdfmark {pgfid38}{1115951}{13765391}
\pgfsyspdfmark {pgfid39}{1714424}{13765391}
\pgfsyspdfmark {pgfid40}{2312897}{13765391}
\pgfsyspdfmark {pgfid41}{2911370}{13765391}
\pgfsyspdfmark {pgfid42}{716969}{13765391}
\pgfsyspdfmark {pgfid43}{1115951}{13765391}
\pgfsyspdfmark {pgfid44}{1714424}{13765391}
\pgfsyspdfmark {pgfid45}{2312897}{13765391}
\pgfsyspdfmark {pgfid46}{2911370}{13765391}
\pgfsyspdfmark {pgfid47}{716969}{13765391}
\pgfsyspdfmark {pgfid48}{1115951}{13765391}
\pgfsyspdfmark {pgfid49}{1714424}{13765391}
\pgfsyspdfmark {pgfid50}{2312897}{13765391}
\pgfsyspdfmark {pgfid51}{2911370}{13765391}
\@writefile{nav}{\headcommand {\slideentry {0}{0}{8}{12/17}{}{0}}}
\@writefile{nav}{\headcommand {\beamer@framepages {12}{17}}}
\pgfsyspdfmark {pgfid52}{716969}{13765391}
\pgfsyspdfmark {pgfid53}{1115951}{13765391}
\pgfsyspdfmark {pgfid54}{1714424}{13765391}
\pgfsyspdfmark {pgfid55}{2312897}{13765391}
\pgfsyspdfmark {pgfid56}{2911370}{13765391}
\pgfsyspdfmark {pgfid57}{3509843}{13765391}
\pgfsyspdfmark {pgfid58}{3908825}{13765391}
\pgfsyspdfmark {pgfid59}{716969}{13765391}
\pgfsyspdfmark {pgfid60}{1115951}{13765391}
\pgfsyspdfmark {pgfid61}{1714424}{13765391}
\pgfsyspdfmark {pgfid62}{2312897}{13765391}
\pgfsyspdfmark {pgfid63}{2911370}{13765391}
\pgfsyspdfmark {pgfid64}{3509843}{13765391}
\pgfsyspdfmark {pgfid65}{3908825}{13765391}
\pgfsyspdfmark {pgfid66}{716969}{13765391}
\pgfsyspdfmark {pgfid67}{1115951}{13765391}
\pgfsyspdfmark {pgfid68}{1714424}{13765391}
\pgfsyspdfmark {pgfid69}{2312897}{13765391}
\pgfsyspdfmark {pgfid70}{2911370}{13765391}
\pgfsyspdfmark {pgfid71}{3509843}{13765391}
\pgfsyspdfmark {pgfid72}{3908825}{13765391}
\pgfsyspdfmark {pgfid73}{716969}{13765391}
\pgfsyspdfmark {pgfid74}{1115951}{13765391}
\pgfsyspdfmark {pgfid75}{1714424}{13765391}
\pgfsyspdfmark {pgfid76}{2312897}{13765391}
\pgfsyspdfmark {pgfid77}{2911370}{13765391}
\pgfsyspdfmark {pgfid78}{3509843}{13765391}
\pgfsyspdfmark {pgfid79}{3908825}{13765391}
\pgfsyspdfmark {pgfid80}{716969}{13765391}
\pgfsyspdfmark {pgfid81}{1115951}{13765391}
\pgfsyspdfmark {pgfid82}{1714424}{13765391}
\pgfsyspdfmark {pgfid83}{2312897}{13765391}
\pgfsyspdfmark {pgfid84}{2911370}{13765391}
\pgfsyspdfmark {pgfid85}{3509843}{13765391}
\pgfsyspdfmark {pgfid86}{3908825}{13765391}
\pgfsyspdfmark {pgfid87}{716969}{13765391}
\pgfsyspdfmark {pgfid88}{1115951}{13765391}
\pgfsyspdfmark {pgfid89}{1714424}{13765391}
\pgfsyspdfmark {pgfid90}{2312897}{13765391}
\pgfsyspdfmark {pgfid91}{2911370}{13765391}
\pgfsyspdfmark {pgfid92}{3509843}{13765391}
\pgfsyspdfmark {pgfid93}{3908825}{13765391}
\pgfsyspdfmark {pgfid94}{716969}{13765391}
\pgfsyspdfmark {pgfid95}{1115951}{13765391}
\pgfsyspdfmark {pgfid96}{1714424}{13765391}
\pgfsyspdfmark {pgfid97}{2312897}{13765391}
\pgfsyspdfmark {pgfid98}{2911370}{13765391}
\pgfsyspdfmark {pgfid99}{3509843}{13765391}
\pgfsyspdfmark {pgfid100}{3908825}{13765391}
\@writefile{nav}{\headcommand {\slideentry {0}{0}{9}{18/24}{}{0}}}
\@writefile{nav}{\headcommand {\beamer@framepages {18}{24}}}
\@writefile{nav}{\headcommand {\slideentry {0}{0}{10}{25/26}{}{0}}}
\@writefile{nav}{\headcommand {\beamer@framepages {25}{26}}}
\@writefile{nav}{\headcommand {\slideentry {0}{0}{11}{27/28}{}{0}}}
\@writefile{nav}{\headcommand {\beamer@framepages {27}{28}}}
\pgfsyspdfmark {pgfid101}{716969}{13765391}
\@writefile{nav}{\headcommand {\slideentry {0}{0}{12}{29/29}{}{0}}}
\@writefile{nav}{\headcommand {\beamer@framepages {29}{29}}}
\pgfsyspdfmark {pgfid102}{716969}{13765391}
\@writefile{nav}{\headcommand {\slideentry {0}{0}{13}{30/30}{}{0}}}
\@writefile{nav}{\headcommand {\beamer@framepages {30}{30}}}
\pgfsyspdfmark {pgfid103}{716969}{13765391}
\pgfsyspdfmark {pgfid104}{716969}{12874101}
\pgfsyspdfmark {pgfid105}{716969}{13765391}
\pgfsyspdfmark {pgfid106}{716969}{12874101}
\@writefile{nav}{\headcommand {\slideentry {0}{0}{14}{31/32}{}{0}}}
\@writefile{nav}{\headcommand {\beamer@framepages {31}{32}}}
\@writefile{nav}{\headcommand {\beamer@partpages {1}{32}}}
\@writefile{nav}{\headcommand {\beamer@subsectionpages {1}{32}}}
\@writefile{nav}{\headcommand {\beamer@sectionpages {1}{32}}}
\@writefile{nav}{\headcommand {\beamer@documentpages {32}}}
\@writefile{nav}{\headcommand {\gdef \inserttotalframenumber {13}}}
\@writefile{nav}{\headcommand {\slideentry {0}{0}{15}{33/33}{}{0}}}
\@writefile{nav}{\headcommand {\beamer@framepages {33}{33}}}
\gdef \@abspage@last{33}
