#FIG 3.2  Produced by xfig version 3.2.7a
Landscape
Center
Metric
A4
100.00
Single
-2
1200 2
0 32 #cfee00
2 1 0 2 0 7 50 -1 -1 0.000 0 0 -1 1 0 2
	1 1 1.00 60.00 120.00
	 1935 3330 2295 2790
2 1 0 2 0 7 50 -1 -1 0.000 0 0 -1 1 0 2
	1 1 1.00 60.00 120.00
	 1935 3330 3015 3330
2 1 0 2 0 7 50 -1 -1 0.000 0 0 -1 1 0 2
	1 1 1.00 60.00 120.00
	 1935 3330 1935 90
2 5 0 1 0 -1 999 -1 -1 0.000 0 0 -1 0 0 5
	0 teaser.png
	 0 0 7200 0 7200 3600 0 3600 0 0
2 1 0 2 0 7 50 -1 -1 0.000 0 0 -1 1 0 2
	1 1 1.00 60.00 120.00
	 5040 3285 5040 2115
2 1 0 2 0 7 50 -1 -1 0.000 0 0 -1 1 0 2
	1 1 1.00 60.00 120.00
	 5040 3285 6120 3285
2 1 0 2 0 7 50 -1 -1 0.000 0 0 -1 1 0 2
	1 1 1.00 60.00 120.00
	 5040 3285 5400 2745
2 1 0 2 0 7 50 -1 -1 0.000 0 0 -1 1 0 2
	1 1 1.00 60.00 120.00
	 756 2335 1239 2135
2 1 0 2 0 7 50 -1 -1 0.000 0 0 -1 1 0 2
	1 1 1.00 60.00 120.00
	 760 2341 560 1858
4 0 0 50 -1 0 12 0.0000 6 165 525 2250 3060 $x_2$\001
4 0 0 50 -1 0 12 0.0000 6 165 525 2925 3510 $x_1$\001
4 0 0 50 -1 0 12 0.0000 6 165 525 5310 3060 $x_2$\001
4 0 0 50 -1 0 12 0.0000 6 150 270 1710 315 $f$\001
4 0 2 50 -1 0 12 0.0000 6 135 105 1800 2880 1\001
4 0 32 50 -1 0 12 0.0000 6 135 105 1800 2520 2\001
4 0 20 50 -1 0 12 0.0000 6 135 105 1800 585 8\001
4 0 2 50 -1 0 12 0.0000 6 135 105 4905 2835 1\001
4 0 32 50 -1 0 12 0.0000 6 135 105 4905 2475 2\001
4 0 0 50 -1 0 12 0.0000 6 165 525 5985 3510 $x_1$\001
4 0 0 50 -1 0 12 0.0000 6 165 645 1168 2357 $\\xi_1$\001
4 0 0 50 -1 0 12 0.0000 6 165 645 623 1856 $\\xi_2$\001
4 0 0 50 -1 0 12 0.0000 6 150 270 4815 2250 $f$\001
