#FIG 3.2  Produced by xfig version 3.2.8b
Landscape
Center
Metric
A4
100.00
Single
-2
1200 2
2 1 0 4 -1 7 50 -1 -1 0.000 0 0 -1 0 1 2
	2 1 5.00 75.00 90.00
	 -1125 1215 -495 1215
2 5 0 1 0 -1 500 -1 -1 0.000 0 0 -1 0 0 5
	0 earth-shadow.png
	 -3060 135 -1260 135 -1260 1935 -3060 1935 -3060 135
2 5 0 1 0 -1 50 -1 -1 0.000 0 0 -1 0 0 5
	0 Nicolosi_globular_projections_SW.jpg
	 0 225 2700 225 2700 1575 0 1575 0 225
2 1 0 2 0 7 50 -1 -1 0.000 0 0 -1 1 1 3
	2 1 1.00 60.00 120.00
	2 1 1.00 60.00 120.00
	 -90 900 -90 1665 675 1665
2 1 0 4 0 7 50 -1 -1 0.000 0 0 -1 0 1 2
	2 1 5.00 75.00 90.00
	 -495 810 -1125 810
3 0 0 2 0 7 50 -1 -1 0.000 0 0 1 4
	2 1 1.00 60.00 120.00
	 -2462 1314 -2623 1290 -2776 1253 -2890 1203
	 0.000 1.000 1.000 0.000
3 0 0 2 0 7 50 -1 -1 0.000 0 0 1 4
	2 1 1.00 60.00 120.00
	 -2833 719 -2897 935 -2901 1105 -2892 1210
	 0.000 1.000 1.000 0.000
4 0 0 50 -1 0 16 0.0000 6 225 675 540 1845 $x_1$\001
4 0 0 50 -1 0 16 0.0000 6 225 825 -2837 939 $\\xi_2$\001
4 0 0 50 -1 0 16 0.0000 6 225 825 -2667 1533 $\\xi_1$\001
4 0 0 50 -1 0 16 0.0000 6 225 675 -365 1040 $x_2$\001
4 0 0 50 -1 0 24 0.0000 6 375 3510 -1128 615 $\\vec{x}(\\vec{\\xi})$\001
4 0 -1 50 -1 0 24 0.0000 6 375 3510 -1083 1641 $\\vec{\\xi}(\\vec{x})$\001
